\babel@toc {french}{}
\contentsline {chapter}{\numberline {1}Aide au TD/TP}{5}{chapter.1}% 
\contentsline {section}{\numberline {}Structure}{5}{section.1.1}% 
\contentsline {section}{\numberline {}Attributs des balises}{5}{section.1.2}% 
\contentsline {section}{\numberline {}Modification d'attribut en Javascript}{5}{section.1.3}% 
\contentsline {section}{\numberline {}Quelques fonctions Javascript}{6}{section.1.4}% 
\contentsline {section}{\numberline {}Javascript sans bouton}{6}{section.1.5}% 
\contentsline {section}{\numberline {}Page web sur deux colonnes}{6}{section.1.6}% 
\contentsline {section}{\numberline {}Construire du texte en Javascript}{6}{section.1.7}% 
\contentsline {chapter}{\numberline {2}Exercices simples}{7}{chapter.2}% 
\contentsline {section}{\numberline {}Exercice 1 - Modification de texte}{7}{section.2.1}% 
\contentsline {section}{\numberline {}Exercice 2 - Modification d'images}{8}{section.2.2}% 
\contentsline {section}{\numberline {}Exercice 3 - Op\IeC {\'e}rations math\IeC {\'e}matiques}{8}{section.2.3}% 
\contentsline {section}{\numberline {}Exercice 4 - Les conditions}{9}{section.2.4}% 
\contentsline {section}{\numberline {}Exercice 5 - Les boucles}{10}{section.2.5}% 
\contentsline {section}{\numberline {}Exercice 6 - Les tableaux}{10}{section.2.6}% 
