\relax 
\providecommand\hyper@newdestlabel[2]{}
\catcode `:\active 
\catcode `;\active 
\catcode `!\active 
\catcode `?\active 
\providecommand\HyperFirstAtBeginDocument{\AtBeginDocument}
\HyperFirstAtBeginDocument{\ifx\hyper@anchor\@undefined
\global\let\oldcontentsline\contentsline
\gdef\contentsline#1#2#3#4{\oldcontentsline{#1}{#2}{#3}}
\global\let\oldnewlabel\newlabel
\gdef\newlabel#1#2{\newlabelxx{#1}#2}
\gdef\newlabelxx#1#2#3#4#5#6{\oldnewlabel{#1}{{#2}{#3}}}
\AtEndDocument{\ifx\hyper@anchor\@undefined
\let\contentsline\oldcontentsline
\let\newlabel\oldnewlabel
\fi}
\fi}
\global\let\hyper@last\relax 
\gdef\HyperFirstAtBeginDocument#1{#1}
\providecommand\HyField@AuxAddToFields[1]{}
\providecommand\HyField@AuxAddToCoFields[2]{}
\babel@aux{french}{}
\pgfsyspdfmark {pgfid2}{0}{49786951}
\pgfsyspdfmark {pgfid1}{3729359}{45687855}
\@writefile{toc}{\contentsline {chapter}{\numberline {1}Aide au TD/TP}{5}{chapter.1}\protected@file@percent }
\@writefile{lof}{\addvspace {10\p@ }}
\@writefile{lot}{\addvspace {10\p@ }}
\pgfsyspdfmark {pgfid4}{0}{49786951}
\pgfsyspdfmark {pgfid3}{3729359}{45687855}
\@writefile{toc}{\contentsline {section}{\numberline {}Structure}{5}{section.1.1}\protected@file@percent }
\@writefile{toc}{\contentsline {section}{\numberline {}Attributs des balises}{5}{section.1.2}\protected@file@percent }
\@writefile{toc}{\contentsline {section}{\numberline {}Modification d'attribut en Javascript}{5}{section.1.3}\protected@file@percent }
\@writefile{toc}{\contentsline {section}{\numberline {}Quelques fonctions Javascript}{6}{section.1.4}\protected@file@percent }
\@writefile{toc}{\contentsline {section}{\numberline {}Javascript sans bouton}{6}{section.1.5}\protected@file@percent }
\@writefile{toc}{\contentsline {section}{\numberline {}Page web sur deux colonnes}{6}{section.1.6}\protected@file@percent }
\@writefile{toc}{\contentsline {section}{\numberline {}Construire du texte en Javascript}{6}{section.1.7}\protected@file@percent }
\@writefile{toc}{\contentsline {chapter}{\numberline {2}Exercices simples}{7}{chapter.2}\protected@file@percent }
\@writefile{lof}{\addvspace {10\p@ }}
\@writefile{lot}{\addvspace {10\p@ }}
\pgfsyspdfmark {pgfid6}{0}{49786951}
\pgfsyspdfmark {pgfid5}{3729359}{45687855}
\@writefile{toc}{\contentsline {section}{\numberline {}Exercice 1 - Modification de texte}{7}{section.2.1}\protected@file@percent }
\@writefile{toc}{\contentsline {section}{\numberline {}Exercice 2 - Modification d'images}{8}{section.2.2}\protected@file@percent }
\@writefile{toc}{\contentsline {section}{\numberline {}Exercice 3 - Op\IeC {\'e}rations math\IeC {\'e}matiques}{8}{section.2.3}\protected@file@percent }
\@writefile{toc}{\contentsline {section}{\numberline {}Exercice 4 - Les conditions}{9}{section.2.4}\protected@file@percent }
\@writefile{toc}{\contentsline {section}{\numberline {}Exercice 5 - Les boucles}{10}{section.2.5}\protected@file@percent }
\@writefile{toc}{\contentsline {section}{\numberline {}Exercice 6 - Les tableaux}{10}{section.2.6}\protected@file@percent }
